# compile verilog/system verilog design source files
sv xil_defaultlib  \
"../../../../newton_rapson.srcs/sources_1/new/en_reciprocal_beh.sv" \
"../../../../newton_rapson.srcs/sim_1/new/tb_reciprocal_beh.sv" \

# compile glbl module
verilog xil_defaultlib "glbl.v"

# Do not sort compile order
nosort
