# compile verilog/system verilog design source files
verilog xil_defaultlib  \
"mul12_tb_time_synth.v" \

sv xil_defaultlib  \
"../../../../../newton_rapson.srcs/sim_1/new/mul12_tb.sv" \

# Do not sort compile order
nosort
