Running: xsim.dir/cordic_beh_fixedpoint_behav/xsimk -simmode gui -wdb cordic_beh_fixedpoint_behav.wdb -simrunnum 0 -socket 37813
Design successfully loaded
Design Loading Memory Usage: 33092 KB (Peak: 33212 KB)
Design Loading CPU Usage: 30 ms
Simulation completed
Simulation Memory Usage: 118928 KB (Peak: 180364 KB)
Simulation CPU Usage: 50 ms
