// Mem file initialization records.
//
// SW Build 2405991 on Thu Dec  6 23:36:41 MST 2018
// Vivado v2018.3 (64-bit)
// Copyright 1986-2018 Xilinx, Inc. All Rights Reserved.
// Created on Tuesday March 23, 2021 - 05:11:30 pm, from:
//
//     Map file     - /home/wonkie/Rozne/AGieHa/Magisterskie/SDUP/SDUP_repo/cordic_acc/cordic_acc.srcs/sources_1/bd/mb_design/mb_design.bmm
//     Data file(s) - /home/wonkie/Rozne/AGieHa/Magisterskie/SDUP/SDUP_repo/cordic_acc/cordic_acc.sdk/cordic_test/Debug/cordic_test.elf
//
// Address space 'mb_design_inst_mb_design_i_microblaze_0.mb_design_inst_mb_design_i_microblaze_0_local_memory_lmb_bram_8K_1_ADDR_SPACE', bit lane [31:0].
//
// Bus width = 32 bits, number of bus blocks = 1.

@00000000
    B0000000 B8080050 B0000000 B8080638 B0000000 B8080924 00000000 00000000
    B0000000 B808037C

@00000014
    B0000000 31A01028 B0000000 30400EF8 B0000000 30201C30 B0000000 B9F40260
    80000000 B0000000 B9F40308 30A30000 B8000000 B0000000 30A01028 B0000000
    30601028 88632800 BC03002C B0000000 30600000 BC030020 3021FFE4 F9E10000
    99FC1800 80000000 E9E10000 B60F0008 3021001C B60F0008 80000000 B0000000
    30A01028 B0000000 30601028 14651800 10801800 90830001 90840001 10C02000
    90C40041 90C60041 90C60041 90C60041 90C60041 90C60041 90C60041 90C60041
    90C60041 90C60041 90C60041 90C60041 90C60041 90C60041 90C60041 90C60041
    90C60041 90C60041 90C60041 90C60041 90C60041 90C60041 90C60041 90C60041
    90C60041 90C60041 90C60041 90C60041 90C60041 90C60041 90C60041 10C62000
    90C60001 BC06002C B0000000 30600000 BC030020 3021FFE4 F9E10000 99FC1800
    80000000 E9E10000 B60F0008 3021001C B60F0008 80000000 B0000000 E0601028
    BC2300D0 B0000000 30800ED0 B0000000 30A00ECC B0000000 E860102C 3021FFDC
    14852000 FA61001C FAC10020 12602000 92640001 92730001 F9E10000 3273FFFF
    B0000000 32C00ECC 16531803 BEB20038 30630001 10831800 10842000 C884B000
    B0000000 F860102C 99FC2000 80000000 B0000000 E860102C 16531803 BE52FFD8
    30630001 B9F4FE50 80000000 B0000000 30600000 BE030020 E9E10000 B0000000
    30A01028 B000FFFF B9F4FDA8 80000000 E9E10000 EA61001C EAC10020 30600001
    B0000000 F0601028 B60F0008 30210024 B60F0008 80000000 B0000000 30600000
    3021FFE4 BE030024 F9E10000 B0000000 30C01030 B0000000 30A01028 B000FFFF
    B9F4FD50 80000000 B9F4FE14 80000000 E9E10000 B60F0008 3021001C 2021FFD8
    F9E10000 B0000000 20C01028 B0000000 20E01028 06463800 BC720014 F8060000
    20C60004 06463800 BC92FFF4 B0000000 20C01028 B0000000 20E01050 06463800
    BC720014 F8060000 20C60004 06463800 BC92FFF4 B0000000 B9F4031C 80000000
    B0000000 B9F40B34 80000000 20C00000 20E00000 B0000000 B9F403C0 20A00000
    32630000 B0000000 B9F40B4C 80000000 B0000000 B9F402D8 80000000 C9E10000
    30730000 B60F0008 20210028 B8000000 3021FFDC F9E10000 FA610020 12610000
    F8B3001C 10C00000 E8B3001C B0000000 B9F40048 80000000 B0000000 E8600EF0
    E8630028 BC030024 B0000000 E8600EF0 E8630028 B0000000 E8800EF0 10A40000
    99FC1800 80000000 E8B3001C B000FFFF B9F4FCA0 80000000 3021FFC4 F9E10000
    FA61002C FAC10030 FAE10034 FB010038 12610000 F8B30040 F8D30044 B8000008
    80000000 B0000000 E8600EF0 EAC30048 B0000000 E8600EF0 30630048 F873001C
    B80001D4 EB160088 E8760004 32E3FFFF B8000160 30800001 A657001F 10602000
    BE120014 10630000 3252FFFF BE32FFFC 10631800 F8730020 E8730044 BC030028
    BC180120 30770020 10631800 10631800 10781800 E8630000 E8930044 88641800
    BC230100 30770002 10631800 10631800 10761800 E8630000 F8730024 E8760004
    3063FFFF 88771800 BC230014 E8760004 3063FFFF F8760004 B8000018 30770002
    10631800 10631800 10761800 F8030000 E8730024 BC0300B4 E8760004 F8730028
    BC180014 E8980100 E8730020 84641800 BC230014 E8730024 99FC1800 80000000
    B800005C E8980104 E8730020 84641800 BC23002C 1077B800 10631800 10781800
    E8830000 E8730024 10C40000 E8B30040 99FC1800 80000000 B8000024 1077B800
    10631800 10781800 E8830000 E8730024 10A40000 99FC1800 80000000 E8760004
    E8930028 88641800 BC23FE98 E873001C E8630000 88761800 BC23FE88 B8000010
    80000000 B8000008 80000000 32F7FFFF BCB7FEA4 B0000000 30600000 BC030060
    E8760004 BC230048 E8760000 BC030040 E8960000 E873001C F8830000 BC180014
    10B80000 B000FFFF B9F4FA28 80000000 10B60000 B000FFFF B9F4FA18 80000000
    E873001C EAC30000 B800000C FAD3001C EAD60000 BC36FE30 B8000008 80000000
    80000000 E9E10000 10330000 EA61002C EAC10030 EAE10034 EB010038 3021003C
    B60F0008 80000000 98085800 B60F0008 80000000 B60F0008 80000000 B0000000
    E8600EC4 A883FFFF BC04003C 3021FFF8 FA610004 B0000000 32600EC4 F9E10000
    99FC1800 3273FFFC E8730000 A883FFFF BE24FFF0 E9E10000 EA610004 B60F0008
    30210008 B60F0008 80000000 3021FFF4 FA610008 12610000 F8B30004 E8730004
    E8630000 10330000 EA610008 3021000C B60F0008 80000000 3021FFEC FA610010
    12610000 F8B30008 F8D3000C E8730008 F8730004 E8730004 E893000C F8830000
    80000000 10330000 EA610010 30210014 B60F0008 80000000 3021FF9C F9E10000
    FA610060 12610000 30730030 10C00000 10A30000 B0000000 B9F40648 80000000
    F873001C E873001C BC2301D4 30730030 30E00FFF 30C00001 10A30000 B0000000
    B9F40334 80000000 30730040 30C00002 10A30000 B0000000 B9F40608 80000000
    F873001C E873001C BC23019C 30730040 10E00000 30C00001 10A30000 B0000000
    B9F402F4 80000000 30730050 30C00001 10A30000 B0000000 B9F405C8 80000000
    F873001C E873001C BC230164 30730050 10E00000 30C00001 10A30000 B0000000
    B9F402B4 80000000 30730030 30C00001 10A30000 B0000000 B9F4038C 80000000
    F8730020 E8D30020 B00044A0 30A00004 B000FFFF B9F4FEC4 80000000 30C00001
    B00044A0 30A00000 B000FFFF B9F4FEAC 80000000 10C00000 B00044A0 30A00000
    B000FFFF B9F4FE94 80000000 80000000 B00044A0 30A00008 B000FFFF B9F4FE50
    80000000 A4630001 BC03FFE8 B00044A0 30A0000C B000FFFF B9F4FE34 80000000
    F8730024 E8730024 A4630FFF F8730028 E8930024 10602000 90640041 90630041
    90630041 90630041 90630041 90630041 90630041 90630041 90630041 90630041
    90630041 90630041 90630041 90630041 90630041 90630041 A4630FFF F873002C
    30730040 E8F30028 30C00001 10A30000 B0000000 B9F403A0 80000000 30730050
    E8F3002C 30C00001 10A30000 B0000000 B9F40384 80000000 B8000018 80000000
    B8000010 80000000 B8000008 80000000 B8000000 3021FFAC F9E10000 F8210020
    F8610024 F8810028 F8A1002C F8C10030 F8E10034 F9010038 F921003C F9410040
    B0000000 30600FEC F9610044 F9810048 FA21004C 95608001 E8830000 E8A30004
    FA410050 F961001C 99FC2000 80000000 E9E10000 E961001C E8210020 940BC001
    E8610024 E8810028 E8A1002C E8C10030 E8E10034 E9010038 E921003C E9410040
    E9610044 E9810048 EA21004C EA410050 B62E0000 30210054 B0000000 E8601048
    BC03002C 3021FFE4 F9E10000 99FC1800 80000000 B0000000 E8600FF4 BE230000
    E9E10000 B60F0008 3021001C B0000000 E8600FF4 BC230000 B60F0008 80000000
    B60F0008 80000000 BC050034 E8660008 E8C6000C B0000000 F800104C F8650008
    B0001111 30601111 F8E50000 F8C5000C F8650004 B60F0008 10600000 B0000000
    30A00ED4 3021FFE4 F9E10000 B000FFFF B9F4FF68 30C00079 E9E10000 30600001
    B0000000 F860104C 10600000 B60F0008 3021001C 3021FFE4 BE0500C0 F9E10000
    E8650004 B0000000 F800104C B0001111 A8631111 BE23004C A8660001 BE030018
    A8660002 BC230068 E865000C A8630001 BC23005C B0001FFF 30C6FFFF 10C63000
    E8650000 10C63000 10C63000 30C60004 D8E33000 E9E10000 B60F0008 3021001C
    B0000000 30A00ED4 B000FFFF B9F4FECC 30C0009F E9E10000 30600001 B0000000
    F860104C B60F0008 3021001C B0000000 30A00ED4 B000FFFF B9F4FEA0 30C000A1
    E9E10000 30600001 B0000000 F860104C B60F0008 3021001C B0000000 30A00ED4
    B000FFFF B9F4FE74 30C0009E E9E10000 30600001 B0000000 F860104C B60F0008
    3021001C 3021FFE0 FA61001C F9E10000 BE0500D0 12650000 E8650004 B0000000
    F800104C B0001111 A8631111 BE23004C A8660001 BE030018 A8660002 BC230070
    E865000C A8630001 BC230064 B0001FFF 30C6FFFF E8730000 10C63000 10C63000
    10C63000 C8633000 E9E10000 EA61001C B60F0008 30210020 B0000000 30A00ED4
    B000FFFF B9F4FDD4 30C000D7 E9E10000 EA61001C 30600001 B0000000 F860104C
    10600000 B60F0008 30210020 B0000000 30A00ED4 B000FFFF B9F4FDA0 30C000D9
    E9E10000 EA61001C 30600001 B0000000 F860104C 10600000 B60F0008 30210020
    B0000000 30A00ED4 B000FFFF B9F4FD6C 30C000D6 30600001 B0000000 F860104C
    E9E10000 10730000 EA61001C B60F0008 30210020 3021FFE4 BE0500BC F9E10000
    E8650004 B0000000 F800104C B0001111 A8631111 BE230048 A8660001 BE030018
    A8660002 BC230064 E865000C A8630001 BC230058 B0001FFF 30C6FFFF E8650000
    10C63000 10C63000 10C63000 D8E33000 E9E10000 B60F0008 3021001C B0000000
    30A00ED4 B000FFFF B9F4FCD0 30C000F3 E9E10000 30600001 B0000000 F860104C
    B60F0008 3021001C B0000000 30A00ED4 B000FFFF B9F4FCA4 30C000F5 E9E10000
    30600001 B0000000 F860104C B60F0008 3021001C B0000000 30A00ED4 B000FFFF
    B9F4FC78 30C000F2 E9E10000 30600001 B0000000 F860104C B60F0008 3021001C
    3021FFE0 FA61001C F9E10000 BE050058 12650000 B0000000 E4800FF8 B0000000
    F800104C 88843000 BC040070 B0000000 E4601008 88633000 BC0300A0 B0000000
    E4601018 88C33000 BE0600A0 30600002 F8050004 E9E10000 EA61001C B60F0008
    30210020 B0000000 30A00EDC B000FFFF B9F4FBE8 30C0008B 30600001 B0000000
    F860104C E9E10000 10730000 EA61001C B60F0008 30210020 B0000000 30C00FF8
    10842000 10842000 10842000 10842000 B0000000 30840FF8 10B30000 B000FFFF
    B9F4FBE8 E8E40004 E9E10000 EA61001C B60F0008 30210020 B0000000 30C01008
    B810FFC0 30800001 B0000000 30C01018 B810FFB0 30800002 3021FFF0 D9E00800
    3160FFFF 940BC802 31600000 940BC800 B000FFFF B9F4F404 80000000 B000FFFF
    B9F4F7BC 80000000 C9E00800 B60F0008 30210010 3021FFF0 D9E00800 B000FFFF
    B9F4F2F8 80000000 C9E00800 B60F0008 30210010 FFFFFFFF 00000000 FFFFFFFF
    00000000 69706778 00632E6F 69706778 69735F6F 2E74696E 00000063 00000043
    00000EF8

@000003BE
    00000000 00000000 00000000 00000000 00000000 00000000 00000000 00000000
    00000EEC 00000000 00000000 00000000 00000000 00000000 00000000 00000000
    00000000 00000000 00000000 00000000 00000000 00000000 00000000 00000000
    00000000 00000000 00000000 00000000 00000000 00000000 00000000 00000000
    00000000 00000000 00000000 00000000 00000000 00000000 00000000 00000000
    00000000 00000000 00000000 00000000 00000000 00000000 00000000 00000000
    00000000 00000000 00000000 00000000 00000000 00000000 00000000 00000000
    00000000 00000000 00000000 00000000 00000EF8 00000A10 00000000 00000001
    00000000 40000000 00000000 00000000 00000001 40020000 00000000 00000000
    00000002 40010000 00000000 00000000
