# compile verilog/system verilog design source files
verilog xil_defaultlib  --include "../../../../../cordic_acc.srcs/sources_1/bd/mb_design/ipshared/85a3" --include "../../../../../cordic_acc.srcs/sources_1/bd/mb_design/ipshared/ec67/hdl" \
"mb_design_tb_func_synth.v" \
"../../../../../cordic_acc.srcs/sim_1/new/mb_design_tb.v" \

# Do not sort compile order
nosort
